<?xml version="1.0" encoding="iso-8859-1"?>
<!-- Generator: Adobe Illustrator 19.0.0, SVG Export Plug-In . SVG Version: 6.00 Build 0)  -->
<svg version="1.1" id="Capa_1" xmlns="http://www.w3.org/2000/svg" xmlns:xlink="http://www.w3.org/1999/xlink" x="0px" y="0px"
	 viewBox="0 0 511.999 511.999" style="enable-background:new 0 0 511.999 511.999;" xml:space="preserve">
<path style="fill:#FEDBAB;" d="M330.978,226.009c0,41.388-33.59,74.978-74.978,74.978s-74.978-33.59-74.978-74.978
	s33.59-74.978,74.978-74.978S330.978,184.62,330.978,226.009z"/>
<path style="fill:#FEB756;" d="M256,300.987V151.031c41.388,0,74.978,33.59,74.978,74.978S297.388,300.987,256,300.987z"/>
<path style="fill:#FD4E26;" d="M256,0.075c-24.894,0-44.987,21.093-44.987,45.987c0,24.892,20.093,44.987,44.987,44.987
	s44.987-20.095,44.987-44.987C300.987,21.168,280.893,0.075,256,0.075z"/>
<path style="fill:#5C697C;" d="M503.228,337.275l-75.978,74.978c-9.898,9.597-26.392,11.397-37.789,3.599l-43.487-28.791v109.868
	c0,8.397-6.597,14.996-14.996,14.996H181.022c-8.399,0-14.996-6.599-14.996-14.996V387.061l-43.487,28.791
	c-11.397,7.798-27.892,5.998-37.789-3.599L8.772,337.275c-11.696-11.696-11.696-30.89,0-42.587
	c11.697-11.697,30.892-11.697,42.589,0l58.582,57.582l63.881-42.587l69.58,74.678c2.998,4.199,7.498,6.599,12.595,6.599
	c5.098,0,9.597-2.4,12.595-6.599l69.58-74.678l63.881,42.587l58.582-57.582c11.697-11.697,30.892-11.697,42.589,0
	C514.923,306.385,514.923,325.58,503.228,337.275z"/>
<path style="fill:#FE91C2;" d="M338.175,309.684l-69.58,104.67c-2.998,4.199-7.498,6.599-12.595,6.599
	c-5.098,0-9.597-2.4-12.595-6.599l-69.58-104.67l5.698-3.599c5.098-3.599,10.196-5.098,15.894-5.098h119.665
	c6.899,0,12.597,1.799,17.396,5.098L338.175,309.684z"/>
<path style="fill:#E61E14;" d="M256,91.048V0.075c24.894,0,44.987,21.093,44.987,45.987C300.987,70.952,280.893,91.048,256,91.048z"
	/>
<path style="fill:#4B5868;" d="M503.228,337.275l-75.978,74.978c-9.898,9.597-26.392,11.397-37.789,3.599l-43.487-28.791v109.868
	c0,8.397-6.597,14.996-14.996,14.996H256V390.96c5.098,0,9.597-2.4,12.595-6.599l69.58-74.678l63.881,42.587l58.582-57.582
	c11.697-11.697,30.892-11.697,42.589,0C514.923,306.385,514.923,325.58,503.228,337.275z"/>
<path style="fill:#FE73B1;" d="M338.175,309.684l-69.58,104.67c-2.998,4.199-7.498,6.599-12.595,6.599V300.987h59.082
	c6.899,0,12.597,1.799,17.396,5.098L338.175,309.684z"/>
<path style="fill:#FD4E26;" d="M76.052,181.022c-24.894,0-44.987,20.093-44.987,44.987c0,24.892,20.093,44.987,44.987,44.987
	s44.987-20.095,44.987-44.987C121.039,201.115,100.945,181.022,76.052,181.022z"/>
<path style="fill:#E61E14;" d="M76.052,270.996v-89.974c24.894,0,44.987,20.093,44.987,44.987
	C121.039,250.9,100.945,270.996,76.052,270.996z"/>
<path style="fill:#FD4E26;" d="M435.947,181.022c-24.894,0-44.987,20.093-44.987,44.987c0,24.892,20.093,44.987,44.987,44.987
	s44.987-20.095,44.987-44.987C480.934,201.115,460.84,181.022,435.947,181.022z"/>
<path style="fill:#E61E14;" d="M435.947,270.996v-89.974c24.894,0,44.987,20.093,44.987,44.987
	C480.934,250.9,460.84,270.996,435.947,270.996z"/>
<path style="fill:#1BD9DE;" d="M136.035,61.057c-24.894,0-44.987,20.093-44.987,44.987c0,24.892,20.093,44.987,44.987,44.987
	s44.987-20.095,44.987-44.987C181.022,81.15,160.927,61.057,136.035,61.057z"/>
<path style="fill:#15B7BE;" d="M136.035,151.031V61.057c24.894,0,44.987,20.093,44.987,44.987
	C181.022,130.935,160.927,151.031,136.035,151.031z"/>
<path style="fill:#1BD9DE;" d="M375.965,61.057c-24.894,0-44.987,20.093-44.987,44.987c0,24.892,20.093,44.987,44.987,44.987
	s44.987-20.095,44.987-44.987C420.952,81.15,400.858,61.057,375.965,61.057z"/>
<path style="fill:#15B7BE;" d="M375.965,151.031V61.057c24.894,0,44.987,20.093,44.987,44.987
	C420.952,130.935,400.858,151.031,375.965,151.031z"/>
<g>
</g>
<g>
</g>
<g>
</g>
<g>
</g>
<g>
</g>
<g>
</g>
<g>
</g>
<g>
</g>
<g>
</g>
<g>
</g>
<g>
</g>
<g>
</g>
<g>
</g>
<g>
</g>
<g>
</g>
</svg>
